/usr/bin/ruby2.1 extconf.rb 
creating Makefile

make "DESTDIR=" clean

make "DESTDIR="
compiling crypt.c
compiling crypt_blowfish.c
compiling crypt_gensalt.c
compiling bcrypt_ext.c
compiling wrapper.c
linking shared-object bcrypt_ext.so

make "DESTDIR=" install
/usr/bin/install -c -m 0755 bcrypt_ext.so ./.gem.20150123-15106-1k93n18
installing default bcrypt_ext libraries
